{
  "info": {
    "hardware": "0.2", 
    "serial": "00D97B", 
    "firmware": "1.3.6", 
    "model": "4", 
    "manufacturer": "MbientLab Inc"
  }, 
  "cpp_state": [
    2, 
    6, 
    3, 
    1, 
    1, 
    52, 
    25, 
    1, 
    0, 
    0, 
    0, 
    2, 
    0, 
    1, 
    2, 
    3, 
    0, 
    3, 
    1, 
    2, 
    0, 
    4, 
    1, 
    0, 
    4, 
    0, 
    3, 
    1, 
    2, 
    5, 
    0, 
    2, 
    6, 
    3, 
    3, 
    3, 
    3, 
    1, 
    1, 
    6, 
    0, 
    0, 
    0, 
    7, 
    0, 
    0, 
    0, 
    8, 
    0, 
    0, 
    0, 
    9, 
    0, 
    2, 
    1, 
    28, 
    10, 
    0, 
    0, 
    1, 
    28, 
    11, 
    0, 
    2, 
    5, 
    8, 
    0, 
    0, 
    4, 
    0, 
    12, 
    0, 
    0, 
    1, 
    8, 
    13, 
    0, 
    1, 
    0, 
    15, 
    0, 
    1, 
    1, 
    8, 
    16, 
    255, 
    255, 
    17, 
    0, 
    6, 
    1, 
    0, 
    18, 
    1, 
    0, 
    0, 
    19, 
    0, 
    1, 
    0, 
    20, 
    0, 
    0, 
    0, 
    21, 
    255, 
    255, 
    22, 
    0, 
    0, 
    0, 
    23, 
    255, 
    255, 
    24, 
    255, 
    255, 
    25, 
    255, 
    255, 
    254, 
    0, 
    2, 
    0, 
    32, 
    1, 
    1, 
    255, 
    0, 
    1, 
    0, 
    1, 
    1, 
    0, 
    0, 
    3, 
    4, 
    255, 
    0, 
    7, 
    2, 
    3, 
    2, 
    1, 
    0, 
    3, 
    4, 
    255, 
    0, 
    8, 
    2, 
    1, 
    2, 
    1, 
    0, 
    3, 
    4, 
    255, 
    0, 
    8, 
    2, 
    1, 
    2, 
    1, 
    2, 
    3, 
    4, 
    255, 
    0, 
    8, 
    2, 
    1, 
    2, 
    1, 
    4, 
    3, 
    11, 
    255, 
    0, 
    33, 
    0, 
    1, 
    1, 
    0, 
    0, 
    3, 
    17, 
    255, 
    0, 
    28, 
    0, 
    1, 
    1, 
    0, 
    0, 
    3, 
    25, 
    255, 
    0, 
    1, 
    0, 
    1, 
    1, 
    0, 
    0, 
    3, 
    28, 
    255, 
    0, 
    7, 
    2, 
    3, 
    2, 
    1, 
    0, 
    3, 
    218, 
    255, 
    0, 
    1, 
    0, 
    1, 
    2, 
    0, 
    0, 
    4, 
    193, 
    0, 
    0, 
    2, 
    6, 
    1, 
    2, 
    1, 
    0, 
    4, 
    193, 
    1, 
    0, 
    2, 
    6, 
    1, 
    2, 
    1, 
    0, 
    4, 
    193, 
    2, 
    0, 
    2, 
    6, 
    1, 
    2, 
    1, 
    0, 
    4, 
    193, 
    3, 
    0, 
    2, 
    6, 
    1, 
    2, 
    1, 
    0, 
    11, 
    196, 
    255, 
    0, 
    31, 
    0, 
    1, 
    5, 
    0, 
    0, 
    11, 
    197, 
    255, 
    0, 
    1, 
    0, 
    1, 
    4, 
    0, 
    0, 
    17, 
    10, 
    255, 
    0, 
    17, 
    203, 
    255, 
    0, 
    29, 
    0, 
    1, 
    6, 
    0, 
    0, 
    17, 
    204, 
    255, 
    0, 
    14, 
    0, 
    1, 
    3, 
    0, 
    0, 
    17, 
    204, 
    255, 
    0, 
    1, 
    0, 
    1, 
    2, 
    0, 
    1, 
    17, 
    204, 
    255, 
    0, 
    1, 
    0, 
    1, 
    1, 
    0, 
    0, 
    18, 
    1, 
    255, 
    0, 
    3, 
    3, 
    1, 
    4, 
    0, 
    0, 
    18, 
    2, 
    255, 
    0, 
    4, 
    3, 
    1, 
    4, 
    1, 
    0, 
    18, 
    193, 
    255, 
    0, 
    3, 
    3, 
    1, 
    4, 
    0, 
    0, 
    19, 
    5, 
    255, 
    0, 
    5, 
    4, 
    3, 
    2, 
    1, 
    0, 
    19, 
    5, 
    255, 
    0, 
    6, 
    4, 
    1, 
    2, 
    1, 
    0, 
    19, 
    5, 
    255, 
    0, 
    6, 
    4, 
    1, 
    2, 
    1, 
    2, 
    19, 
    5, 
    255, 
    0, 
    6, 
    4, 
    1, 
    2, 
    1, 
    4, 
    19, 
    7, 
    255, 
    0, 
    5, 
    4, 
    3, 
    2, 
    1, 
    0, 
    20, 
    3, 
    255, 
    0, 
    1, 
    0, 
    1, 
    4, 
    0, 
    0, 
    22, 
    193, 
    255, 
    0, 
    16, 
    1, 
    1, 
    4, 
    0, 
    0, 
    254, 
    196, 
    255, 
    0, 
    1, 
    0, 
    1, 
    4, 
    0, 
    0, 
    4, 
    3, 
    40, 
    3, 
    7, 
    48, 
    129, 
    11, 
    192, 
    0, 
    20, 
    20, 
    20, 
    64, 
    10, 
    24, 
    72, 
    8, 
    17, 
    0, 
    0, 
    18, 
    44, 
    0, 
    19, 
    40, 
    0, 
    20, 
    0, 
    3, 
    4, 
    133, 
    218, 
    170, 
    185, 
    106, 
    1, 
    0, 
    0, 
    0, 
    252, 
    195, 
    144, 
    154, 
    106, 
    1, 
    0, 
    0, 
    1, 
    198, 
    212, 
    211, 
    162, 
    106, 
    1, 
    0, 
    0, 
    2, 
    186, 
    63, 
    174, 
    97, 
    106, 
    1, 
    0, 
    0, 
    7, 
    0
  ]
}