$ pip freeze
DEPRECATION: Python 2.7 will reach the end of its life on January 1st, 2020. Please upgrade your Python as Python 2.7 won't be maintained after that date. A future version of pip will drop support for Python 2.7.
Could not parse requirement: -etawear
appdirs==1.4.3
backports.functools-lru-cache==1.5
beautifulsoup4==4.6.0
certifi==2017.11.5
chardet==3.0.4
colorama==0.3.9
cycler==0.10.0
enum34==1.1.6
fasteners==0.14.1
funcsigs==1.0.2
future==0.16.0
fuzzywuzzy==0.16.0
idna==2.6
intelhex==2.1
Jinja2==2.10
junit-xml==1.8
kiwisolver==1.0.1
llvmlite==0.28.0
lockfile==0.12.2
MarkupSafe==1.0
matplotlib==2.2.4
mbed-cli==1.3.0
mbed-greentea==1.3.2
mbed-host-tests==1.3.0
mbed-ls==1.3.5
mercurial==4.4.2
metawear==0.5.0
mock==2.0.0
monotonic==1.4
numba==0.43.1
numpy==1.16.2
numpy-quaternion==2019.3.21.14.22.55
pbr==3.1.1
prettytable==0.7.2
pyOCD==0.8.1a1
pyparsing==2.3.1
pyserial==3.4
python-dateutil==2.8.0
pytz==2018.9
pywinusb==0.4.2
PyYAML==3.12
requests==2.18.4
scipy==1.2.1
singledispatch==3.4.0.3
six==1.11.0
SQLAlchemy==1.3.3
tabulate==0.8.3
termcolor==1.1.0
urllib3==1.22
warble==1.1.0
websocket-client==0.46.0
